%YAML 1.1
%TAG !u! tag:unity3d.com,2011:
--- !u!74 &7400000
AnimationClip:
  m_ObjectHideFlags: 0
  m_PrefabParentObject: {fileID: 0}
  m_PrefabInternal: {fileID: 0}
  m_Name: Enemy_dead-slice
  serializedVersion: 6
  m_Legacy: 0
  m_Compressed: 0
  m_UseHighQualityCurve: 1
  m_RotationCurves:
  - curve:
      serializedVersion: 2
      m_Curve:
      - time: 0
        value: {x: .551118433, y: -.422853142, z: .562746227, w: .448085099}
        inSlope: {x: -4.55684519, y: -3.82434416, z: -4.37288237, w: 3.68747044}
        outSlope: {x: -4.55684519, y: -3.82434416, z: -4.37288237, w: 3.68747044}
        tangentMode: 0
      - time: .0500000007
        value: {x: .323276162, y: -.614070356, z: .344102114, w: .632458627}
        inSlope: {x: -1.40781748, y: -3.02748394, z: -3.60369134, w: .658893228}
        outSlope: {x: -1.40781748, y: -3.02748394, z: -3.60369134, w: .658893228}
        tangentMode: 0
      - time: .100000001
        value: {x: .410336673, y: -.725601554, z: .202377096, w: .513974428}
        inSlope: {x: -.212859988, y: -1.03463948, z: -1.60497129, w: -.322622716}
        outSlope: {x: -.212859988, y: -1.03463948, z: -1.60497129, w: -.322622716}
        tangentMode: 0
      - time: .150000006
        value: {x: .301990151, y: -.717534304, z: .183604985, w: .600196362}
        inSlope: {x: -2.34309006, y: .54330945, z: -.10221494, w: 1.79917693}
        outSlope: {x: -2.34309006, y: .54330945, z: -.10221494, w: 1.79917693}
        tangentMode: 0
      - time: .200000003
        value: {x: .176027671, y: -.671270609, z: .1921556, w: .693892121}
        inSlope: {x: -2.06273556, y: .303158164, z: -.745625079, w: 1.11617458}
        outSlope: {x: -2.06273556, y: .303158164, z: -.745625079, w: 1.11617458}
        tangentMode: 0
      - time: .25
        value: {x: .0957165956, y: -.687218487, z: .109042481, w: .711813807}
        inSlope: {x: -1.64490628, y: -.226001143, z: -1.7032578, w: .257840753}
        outSlope: {x: -1.64490628, y: -.226001143, z: -1.7032578, w: .257840753}
        tangentMode: 0
      - time: .300000012
        value: {x: .0115370275, y: -.693870723, z: .0218298063, w: .719676197}
        inSlope: {x: -1.46868563, y: -.0503927357, z: -1.52419543, w: .067131497}
        outSlope: {x: -1.46868563, y: -.0503927357, z: -1.52419543, w: .067131497}
        tangentMode: 0
      - time: .350000024
        value: {x: -.0511520021, y: -.692257762, z: -.0433771051, w: .718526959}
        inSlope: {x: -.826019466, y: .0355172083, z: -.857437015, w: -.025120968}
        outSlope: {x: -.826019466, y: .0355172083, z: -.857437015, w: -.025120968}
        tangentMode: 0
      - time: .400000036
        value: {x: -.0710649416, y: -.690319002, z: -.0639139116, w: .717164099}
        inSlope: {x: -.443718582, y: .048971165, z: -.451255202, w: -.0397968218}
        outSlope: {x: -.443718582, y: .048971165, z: -.451255202, w: -.0397968218}
        tangentMode: 0
      - time: .450000048
        value: {x: -.0955238715, y: -.687360644, z: -.088502638, w: .714547276}
        inSlope: {x: -.791111588, y: .127955645, z: -.822538555, w: -.121504635}
        outSlope: {x: -.791111588, y: .127955645, z: -.822538555, w: -.121504635}
        tangentMode: 0
      - time: .50000006
        value: {x: -.150176123, y: -.677523434, z: -.146167785, w: .705013633}
        inSlope: {x: .241936266, y: -.0293123648, z: .20459789, w: .0223672315}
        outSlope: {x: .241936266, y: -.0293123648, z: .20459789, w: .0223672315}
        tangentMode: 0
      - time: .550000072
        value: {x: -.0713302419, y: -.690291882, z: -.0680428445, w: .716784}
        inSlope: {x: 1.61331189, y: -.163543224, z: 1.63733363, w: .147785544}
        outSlope: {x: 1.61331189, y: -.163543224, z: 1.63733363, w: .147785544}
        tangentMode: 0
      - time: .600000024
        value: {x: .011154999, y: -.693877757, z: .0175655168, w: .719792187}
        inSlope: {x: 1.64970648, y: -.0717175677, z: 1.71216893, w: .0601637922}
        outSlope: {x: 1.64970648, y: -.0717175677, z: 1.71216893, w: .0601637922}
        tangentMode: 0
      m_PreInfinity: 2
      m_PostInfinity: 2
    path: Katana
  m_CompressedRotationCurves: []
  m_PositionCurves:
  - curve:
      serializedVersion: 2
      m_Curve:
      - time: 0
        value: {x: -.409999996, y: .400000006, z: .939999998}
        inSlope: {x: 2.3599999, y: 1.8599999, z: -.0999999046}
        outSlope: {x: 2.3599999, y: 1.8599999, z: -.0999999046}
        tangentMode: 0
      - time: .0500000007
        value: {x: -.291999996, y: .493000001, z: .935000002}
        inSlope: {x: 1.63, y: 2.85999966, z: -.130000114}
        outSlope: {x: 1.63, y: 2.85999966, z: -.130000114}
        tangentMode: 0
      - time: .100000001
        value: {x: -.246999994, y: .68599999, z: .926999986}
        inSlope: {x: -.110000044, y: 4.48999977, z: -.180000067}
        outSlope: {x: -.110000044, y: 4.48999977, z: -.180000067}
        tangentMode: 0
      - time: .150000006
        value: {x: -.303000003, y: .941999972, z: .916999996}
        inSlope: {x: 4.14000034, y: 4.53999996, z: -.2700001}
        outSlope: {x: 4.14000034, y: 4.53999996, z: -.2700001}
        tangentMode: 0
      - time: .200000003
        value: {x: .166999996, y: 1.13999999, z: .899999976}
        inSlope: {x: 11.6876383, y: 2.56954026, z: -.369999111}
        outSlope: {x: 11.6876383, y: 2.56954026, z: -.369999111}
        tangentMode: 0
      - time: .300000012
        value: {x: 1.56452763, y: 1.25790799, z: .860000193}
        inSlope: {x: 10.9543085, y: .00893092155, z: -.787500679}
        outSlope: {x: 10.9543085, y: .00893092155, z: -.787500679}
        tangentMode: 0
      - time: .349999994
        value: {x: 1.96119452, y: 1.1998471, z: .801250041}
        inSlope: {x: 7.45472383, y: -5.37907839, z: -.200002521}
        outSlope: {x: 7.45472383, y: -5.37907839, z: -.200002521}
        tangentMode: 0
      - time: .400000006
        value: {x: 2.30999994, y: .720000029, z: .839999974}
        inSlope: {x: 10.5880566, y: -6.49847031, z: 4.18750095}
        outSlope: {x: 10.5880566, y: -6.49847031, z: 4.18750095}
        tangentMode: 0
      - time: .449999988
        value: {x: 3.01999998, y: .550000012, z: 1.22000003}
        inSlope: {x: 10.3000011, y: -5.5999999, z: -18.3999939}
        outSlope: {x: 10.3000011, y: -5.5999999, z: -18.3999939}
        tangentMode: 0
      - time: .5
        value: {x: 3.33999991, y: .159999996, z: -1}
        inSlope: {x: 1.70000041, y: -5.09999895, z: -21.8999958}
        outSlope: {x: 1.70000041, y: -5.09999895, z: -21.8999958}
        tangentMode: 0
      - time: .550000012
        value: {x: 3.19000006, y: .0399999991, z: -.970000029}
        inSlope: {x: -3.6999979, y: -3.69999933, z: .400000125}
        outSlope: {x: -3.6999979, y: -3.69999933, z: .400000125}
        tangentMode: 0
      - time: .600000024
        value: {x: 2.97000003, y: -.209999993, z: -.959999979}
        inSlope: {x: -4.39999962, y: -4.99999905, z: .200000957}
        outSlope: {x: -4.39999962, y: -4.99999905, z: .200000957}
        tangentMode: 0
      m_PreInfinity: 2
      m_PostInfinity: 2
    path: Katana
  - curve:
      serializedVersion: 2
      m_Curve:
      - time: 0
        value: {x: -.0900000036, y: .899999976, z: -.515843093}
        inSlope: {x: 2.10000014, y: -.0999999046, z: .326492786}
        outSlope: {x: 2.10000014, y: -.0999999046, z: .326492786}
        tangentMode: 0
      - time: .100000001
        value: {x: .119999997, y: .889999986, z: -.483193815}
        inSlope: {x: 2.10000014, y: -.0999999046, z: .326492786}
        outSlope: {x: 2.10000014, y: -.0999999046, z: .326492786}
        tangentMode: 0
      m_PreInfinity: 2
      m_PostInfinity: 2
    path: Bloodsplatter
  - curve:
      serializedVersion: 2
      m_Curve:
      - time: 0
        value: {x: 0, y: 0, z: 0}
        inSlope: {x: 1.26666665, y: 0, z: 0}
        outSlope: {x: 1.26666665, y: 0, z: 0}
        tangentMode: 0
      - time: .150000006
        value: {x: .189999998, y: 0, z: 0}
        inSlope: {x: 5.53333378, y: 1.20000005, z: 0}
        outSlope: {x: 5.53333378, y: 1.20000005, z: 0}
        tangentMode: 0
      - time: .200000003
        value: {x: .680000007, y: .119999997, z: 0}
        inSlope: {x: 14.000001, y: 2.10000014, z: 0}
        outSlope: {x: 14.000001, y: 2.10000014, z: 0}
        tangentMode: 0
      - time: .25
        value: {x: 1.59000003, y: .209999993, z: 0}
        inSlope: {x: 18.3999977, y: .900000036, z: 0}
        outSlope: {x: 18.3999977, y: .900000036, z: 0}
        tangentMode: 0
      - time: .300000012
        value: {x: 2.51999998, y: .209999993, z: 0}
        inSlope: {x: 22.1000023, y: -3.90000129, z: 0}
        outSlope: {x: 22.1000023, y: -3.90000129, z: 0}
        tangentMode: 0
      - time: .349999994
        value: {x: 3.79999995, y: -.180000007, z: 0}
        inSlope: {x: 24.9000034, y: -7.70000029, z: 0}
        outSlope: {x: 24.9000034, y: -7.70000029, z: 0}
        tangentMode: 0
      - time: .400000006
        value: {x: 5.01000023, y: -.560000002, z: 0}
        inSlope: {x: 18.8999996, y: -8.00000095, z: 0}
        outSlope: {x: 18.8999996, y: -8.00000095, z: 0}
        tangentMode: 0
      - time: .449999988
        value: {x: 5.69000006, y: -.980000019, z: 0}
        inSlope: {x: 13.6000013, y: -8.40000343, z: 0}
        outSlope: {x: 13.6000013, y: -8.40000343, z: 0}
        tangentMode: 0
      m_PreInfinity: 2
      m_PostInfinity: 2
    path: 
  m_ScaleCurves:
  - curve:
      serializedVersion: 2
      m_Curve:
      - time: 0
        value: {x: 1, y: 1, z: 1}
        inSlope: {x: -.632930398, y: -.632930398, z: -.632930398}
        outSlope: {x: -.632930398, y: -.632930398, z: -.632930398}
        tangentMode: 0
      - time: .100000001
        value: {x: .93670696, y: .93670696, z: .93670696}
        inSlope: {x: -.632930398, y: -.632930398, z: -.632930398}
        outSlope: {x: -.632930398, y: -.632930398, z: -.632930398}
        tangentMode: 0
      m_PreInfinity: 2
      m_PostInfinity: 2
    path: Bloodsplatter
  m_FloatCurves:
  - curve:
      serializedVersion: 2
      m_Curve:
      - time: 0
        value: 0
        inSlope: Infinity
        outSlope: Infinity
        tangentMode: 31
      m_PreInfinity: 2
      m_PostInfinity: 2
    attribute: m_Enabled
    path: 
    classID: 61
    script: {fileID: 0}
  - curve:
      serializedVersion: 2
      m_Curve:
      - time: 0
        value: 0
        inSlope: Infinity
        outSlope: Infinity
        tangentMode: 31
      - time: .100000001
        value: 1
        inSlope: Infinity
        outSlope: Infinity
        tangentMode: 31
      m_PreInfinity: 2
      m_PostInfinity: 2
    attribute: m_IsActive
    path: Bloodsplatter
    classID: 1
    script: {fileID: 0}
  - curve:
      serializedVersion: 2
      m_Curve:
      - time: 0
        value: 1
        inSlope: Infinity
        outSlope: Infinity
        tangentMode: 31
      - time: .0500000007
        value: 1
        inSlope: Infinity
        outSlope: Infinity
        tangentMode: 31
      m_PreInfinity: 2
      m_PostInfinity: 2
    attribute: m_IsActive
    path: Musicspray
    classID: 1
    script: {fileID: 0}
  m_PPtrCurves:
  - curve:
    - time: 0
      value: {fileID: 21300000, guid: 4a716c3a994618d4db2248d6fc2ad1b1, type: 3}
    - time: .0500000007
      value: {fileID: 21300002, guid: 4a716c3a994618d4db2248d6fc2ad1b1, type: 3}
    - time: .100000001
      value: {fileID: 21300004, guid: 4a716c3a994618d4db2248d6fc2ad1b1, type: 3}
    - time: .150000006
      value: {fileID: 21300006, guid: 4a716c3a994618d4db2248d6fc2ad1b1, type: 3}
    - time: .200000003
      value: {fileID: 21300008, guid: 4a716c3a994618d4db2248d6fc2ad1b1, type: 3}
    - time: .25
      value: {fileID: 21300010, guid: 4a716c3a994618d4db2248d6fc2ad1b1, type: 3}
    - time: .300000012
      value: {fileID: 21300012, guid: 4a716c3a994618d4db2248d6fc2ad1b1, type: 3}
    - time: .349999994
      value: {fileID: 21300014, guid: 4a716c3a994618d4db2248d6fc2ad1b1, type: 3}
    - time: .400000006
      value: {fileID: 21300016, guid: 4a716c3a994618d4db2248d6fc2ad1b1, type: 3}
    - time: .449999988
      value: {fileID: 21300018, guid: 4a716c3a994618d4db2248d6fc2ad1b1, type: 3}
    attribute: m_Sprite
    path: 
    classID: 212
    script: {fileID: 0}
  m_SampleRate: 20
  m_WrapMode: 0
  m_Bounds:
    m_Center: {x: 0, y: 0, z: 0}
    m_Extent: {x: 0, y: 0, z: 0}
  m_ClipBindingConstant:
    genericBindings:
    - path: 478971082
      attribute: 1
      script: {fileID: 0}
      classID: 4
      customType: 0
      isPPtrCurve: 0
    - path: 423952753
      attribute: 1
      script: {fileID: 0}
      classID: 4
      customType: 0
      isPPtrCurve: 0
    - path: 0
      attribute: 1
      script: {fileID: 0}
      classID: 4
      customType: 0
      isPPtrCurve: 0
    - path: 478971082
      attribute: 2
      script: {fileID: 0}
      classID: 4
      customType: 0
      isPPtrCurve: 0
    - path: 423952753
      attribute: 3
      script: {fileID: 0}
      classID: 4
      customType: 0
      isPPtrCurve: 0
    - path: 0
      attribute: 3305885265
      script: {fileID: 0}
      classID: 61
      customType: 0
      isPPtrCurve: 0
    - path: 423952753
      attribute: 2086281974
      script: {fileID: 0}
      classID: 1
      customType: 0
      isPPtrCurve: 0
    - path: 1466733966
      attribute: 2086281974
      script: {fileID: 0}
      classID: 1
      customType: 0
      isPPtrCurve: 0
    - path: 0
      attribute: 0
      script: {fileID: 0}
      classID: 212
      customType: 23
      isPPtrCurve: 1
    pptrCurveMapping:
    - {fileID: 21300000, guid: 4a716c3a994618d4db2248d6fc2ad1b1, type: 3}
    - {fileID: 21300002, guid: 4a716c3a994618d4db2248d6fc2ad1b1, type: 3}
    - {fileID: 21300004, guid: 4a716c3a994618d4db2248d6fc2ad1b1, type: 3}
    - {fileID: 21300006, guid: 4a716c3a994618d4db2248d6fc2ad1b1, type: 3}
    - {fileID: 21300008, guid: 4a716c3a994618d4db2248d6fc2ad1b1, type: 3}
    - {fileID: 21300010, guid: 4a716c3a994618d4db2248d6fc2ad1b1, type: 3}
    - {fileID: 21300012, guid: 4a716c3a994618d4db2248d6fc2ad1b1, type: 3}
    - {fileID: 21300014, guid: 4a716c3a994618d4db2248d6fc2ad1b1, type: 3}
    - {fileID: 21300016, guid: 4a716c3a994618d4db2248d6fc2ad1b1, type: 3}
    - {fileID: 21300018, guid: 4a716c3a994618d4db2248d6fc2ad1b1, type: 3}
  m_AnimationClipSettings:
    serializedVersion: 2
    m_StartTime: 0
    m_StopTime: .600000024
    m_OrientationOffsetY: 0
    m_Level: 0
    m_CycleOffset: 0
    m_LoopTime: 0
    m_LoopBlend: 0
    m_LoopBlendOrientation: 0
    m_LoopBlendPositionY: 0
    m_LoopBlendPositionXZ: 0
    m_KeepOriginalOrientation: 0
    m_KeepOriginalPositionY: 1
    m_KeepOriginalPositionXZ: 0
    m_HeightFromFeet: 0
    m_Mirror: 0
  m_EditorCurves:
  - curve:
      serializedVersion: 2
      m_Curve:
      - time: 0
        value: -.409999996
        inSlope: 2.3599999
        outSlope: 2.3599999
        tangentMode: 10
      - time: .0500000007
        value: -.291999996
        inSlope: 1.63
        outSlope: 1.63
        tangentMode: 10
      - time: .100000001
        value: -.246999994
        inSlope: -.110000044
        outSlope: -.110000044
        tangentMode: 10
      - time: .150000006
        value: -.303000003
        inSlope: 4.14000034
        outSlope: 4.14000034
        tangentMode: 10
      - time: .200000003
        value: .166999996
        inSlope: 11.6876383
        outSlope: 11.6876383
        tangentMode: 10
      - time: .300000012
        value: 1.56452763
        inSlope: 10.9543085
        outSlope: 10.9543085
        tangentMode: 10
      - time: .349999994
        value: 1.96119452
        inSlope: 7.45472383
        outSlope: 7.45472383
        tangentMode: 10
      - time: .400000006
        value: 2.30999994
        inSlope: 10.5880566
        outSlope: 10.5880566
        tangentMode: 10
      - time: .449999988
        value: 3.01999998
        inSlope: 10.3000011
        outSlope: 10.3000011
        tangentMode: 10
      - time: .5
        value: 3.33999991
        inSlope: 1.70000041
        outSlope: 1.70000041
        tangentMode: 10
      - time: .550000012
        value: 3.19000006
        inSlope: -3.6999979
        outSlope: -3.6999979
        tangentMode: 10
      - time: .600000024
        value: 2.97000003
        inSlope: -4.39999962
        outSlope: -4.39999962
        tangentMode: 10
      m_PreInfinity: 2
      m_PostInfinity: 2
    attribute: m_LocalPosition.x
    path: Katana
    classID: 4
    script: {fileID: 0}
  - curve:
      serializedVersion: 2
      m_Curve:
      - time: 0
        value: .400000006
        inSlope: 1.8599999
        outSlope: 1.8599999
        tangentMode: 10
      - time: .0500000007
        value: .493000001
        inSlope: 2.85999966
        outSlope: 2.85999966
        tangentMode: 10
      - time: .100000001
        value: .68599999
        inSlope: 4.48999977
        outSlope: 4.48999977
        tangentMode: 10
      - time: .150000006
        value: .941999972
        inSlope: 4.53999996
        outSlope: 4.53999996
        tangentMode: 10
      - time: .200000003
        value: 1.13999999
        inSlope: 2.56954026
        outSlope: 2.56954026
        tangentMode: 10
      - time: .300000012
        value: 1.25790799
        inSlope: .00893092155
        outSlope: .00893092155
        tangentMode: 10
      - time: .349999994
        value: 1.1998471
        inSlope: -5.37907839
        outSlope: -5.37907839
        tangentMode: 10
      - time: .400000006
        value: .720000029
        inSlope: -6.49847031
        outSlope: -6.49847031
        tangentMode: 10
      - time: .449999988
        value: .550000012
        inSlope: -5.5999999
        outSlope: -5.5999999
        tangentMode: 10
      - time: .5
        value: .159999996
        inSlope: -5.09999895
        outSlope: -5.09999895
        tangentMode: 10
      - time: .550000012
        value: .0399999991
        inSlope: -3.69999933
        outSlope: -3.69999933
        tangentMode: 10
      - time: .600000024
        value: -.209999993
        inSlope: -4.99999905
        outSlope: -4.99999905
        tangentMode: 10
      m_PreInfinity: 2
      m_PostInfinity: 2
    attribute: m_LocalPosition.y
    path: Katana
    classID: 4
    script: {fileID: 0}
  - curve:
      serializedVersion: 2
      m_Curve:
      - time: 0
        value: .939999998
        inSlope: -.0999999046
        outSlope: -.0999999046
        tangentMode: 10
      - time: .0500000007
        value: .935000002
        inSlope: -.130000114
        outSlope: -.130000114
        tangentMode: 10
      - time: .100000001
        value: .926999986
        inSlope: -.180000067
        outSlope: -.180000067
        tangentMode: 10
      - time: .150000006
        value: .916999996
        inSlope: -.2700001
        outSlope: -.2700001
        tangentMode: 10
      - time: .200000003
        value: .899999976
        inSlope: -.369999111
        outSlope: -.369999111
        tangentMode: 10
      - time: .300000012
        value: .860000193
        inSlope: -.787500679
        outSlope: -.787500679
        tangentMode: 10
      - time: .349999994
        value: .801250041
        inSlope: -.200002521
        outSlope: -.200002521
        tangentMode: 10
      - time: .400000006
        value: .839999974
        inSlope: 4.18750095
        outSlope: 4.18750095
        tangentMode: 10
      - time: .449999988
        value: 1.22000003
        inSlope: -18.3999939
        outSlope: -18.3999939
        tangentMode: 10
      - time: .5
        value: -1
        inSlope: -21.8999958
        outSlope: -21.8999958
        tangentMode: 10
      - time: .550000012
        value: -.970000029
        inSlope: .400000125
        outSlope: .400000125
        tangentMode: 10
      - time: .600000024
        value: -.959999979
        inSlope: .200000957
        outSlope: .200000957
        tangentMode: 10
      m_PreInfinity: 2
      m_PostInfinity: 2
    attribute: m_LocalPosition.z
    path: Katana
    classID: 4
    script: {fileID: 0}
  - curve:
      serializedVersion: 2
      m_Curve:
      - time: 0
        value: 0
        inSlope: Infinity
        outSlope: Infinity
        tangentMode: 31
      m_PreInfinity: 2
      m_PostInfinity: 2
    attribute: m_Enabled
    path: 
    classID: 61
    script: {fileID: 0}
  - curve:
      serializedVersion: 2
      m_Curve:
      - time: 0
        value: -.0900000036
        inSlope: 2.10000014
        outSlope: 2.10000014
        tangentMode: 10
      - time: .100000001
        value: .119999997
        inSlope: 2.10000014
        outSlope: 2.10000014
        tangentMode: 10
      m_PreInfinity: 2
      m_PostInfinity: 2
    attribute: m_LocalPosition.x
    path: Bloodsplatter
    classID: 4
    script: {fileID: 0}
  - curve:
      serializedVersion: 2
      m_Curve:
      - time: 0
        value: .899999976
        inSlope: -.0999999046
        outSlope: -.0999999046
        tangentMode: 10
      - time: .100000001
        value: .889999986
        inSlope: -.0999999046
        outSlope: -.0999999046
        tangentMode: 10
      m_PreInfinity: 2
      m_PostInfinity: 2
    attribute: m_LocalPosition.y
    path: Bloodsplatter
    classID: 4
    script: {fileID: 0}
  - curve:
      serializedVersion: 2
      m_Curve:
      - time: 0
        value: -.515843093
        inSlope: .326492786
        outSlope: .326492786
        tangentMode: 10
      - time: .100000001
        value: -.483193815
        inSlope: .326492786
        outSlope: .326492786
        tangentMode: 10
      m_PreInfinity: 2
      m_PostInfinity: 2
    attribute: m_LocalPosition.z
    path: Bloodsplatter
    classID: 4
    script: {fileID: 0}
  - curve:
      serializedVersion: 2
      m_Curve:
      - time: 0
        value: 1
        inSlope: -.632930398
        outSlope: -.632930398
        tangentMode: 10
      - time: .100000001
        value: .93670696
        inSlope: -.632930398
        outSlope: -.632930398
        tangentMode: 10
      m_PreInfinity: 2
      m_PostInfinity: 2
    attribute: m_LocalScale.x
    path: Bloodsplatter
    classID: 4
    script: {fileID: 0}
  - curve:
      serializedVersion: 2
      m_Curve:
      - time: 0
        value: 1
        inSlope: -.632930398
        outSlope: -.632930398
        tangentMode: 10
      - time: .100000001
        value: .93670696
        inSlope: -.632930398
        outSlope: -.632930398
        tangentMode: 10
      m_PreInfinity: 2
      m_PostInfinity: 2
    attribute: m_LocalScale.y
    path: Bloodsplatter
    classID: 4
    script: {fileID: 0}
  - curve:
      serializedVersion: 2
      m_Curve:
      - time: 0
        value: 1
        inSlope: -.632930398
        outSlope: -.632930398
        tangentMode: 10
      - time: .100000001
        value: .93670696
        inSlope: -.632930398
        outSlope: -.632930398
        tangentMode: 10
      m_PreInfinity: 2
      m_PostInfinity: 2
    attribute: m_LocalScale.z
    path: Bloodsplatter
    classID: 4
    script: {fileID: 0}
  - curve:
      serializedVersion: 2
      m_Curve:
      - time: 0
        value: 0
        inSlope: Infinity
        outSlope: Infinity
        tangentMode: 31
      - time: .100000001
        value: 1
        inSlope: Infinity
        outSlope: Infinity
        tangentMode: 31
      m_PreInfinity: 2
      m_PostInfinity: 2
    attribute: m_IsActive
    path: Bloodsplatter
    classID: 1
    script: {fileID: 0}
  - curve:
      serializedVersion: 2
      m_Curve:
      - time: 0
        value: .551118433
        inSlope: -4.55684519
        outSlope: -4.55684519
        tangentMode: 0
      - time: .0500000007
        value: .323276162
        inSlope: -1.40781748
        outSlope: -1.40781748
        tangentMode: 0
      - time: .100000001
        value: .410336673
        inSlope: -.212859988
        outSlope: -.212859988
        tangentMode: 0
      - time: .150000006
        value: .301990151
        inSlope: -2.34309006
        outSlope: -2.34309006
        tangentMode: 0
      - time: .200000003
        value: .176027671
        inSlope: -2.06273556
        outSlope: -2.06273556
        tangentMode: 0
      - time: .25
        value: .0957165956
        inSlope: -1.64490628
        outSlope: -1.64490628
        tangentMode: 0
      - time: .300000012
        value: .0115370275
        inSlope: -1.46868563
        outSlope: -1.46868563
        tangentMode: 0
      - time: .350000024
        value: -.0511520021
        inSlope: -.826019466
        outSlope: -.826019466
        tangentMode: 0
      - time: .400000036
        value: -.0710649416
        inSlope: -.443718582
        outSlope: -.443718582
        tangentMode: 0
      - time: .450000048
        value: -.0955238715
        inSlope: -.791111588
        outSlope: -.791111588
        tangentMode: 0
      - time: .50000006
        value: -.150176123
        inSlope: .241936266
        outSlope: .241936266
        tangentMode: 0
      - time: .550000072
        value: -.0713302419
        inSlope: 1.61331189
        outSlope: 1.61331189
        tangentMode: 0
      - time: .600000024
        value: .011154999
        inSlope: 1.64970648
        outSlope: 1.64970648
        tangentMode: 0
      m_PreInfinity: 2
      m_PostInfinity: 2
    attribute: m_LocalRotation.x
    path: Katana
    classID: 4
    script: {fileID: 0}
  - curve:
      serializedVersion: 2
      m_Curve:
      - time: 0
        value: -.422853142
        inSlope: -3.82434416
        outSlope: -3.82434416
        tangentMode: 0
      - time: .0500000007
        value: -.614070356
        inSlope: -3.02748394
        outSlope: -3.02748394
        tangentMode: 0
      - time: .100000001
        value: -.725601554
        inSlope: -1.03463948
        outSlope: -1.03463948
        tangentMode: 0
      - time: .150000006
        value: -.717534304
        inSlope: .54330945
        outSlope: .54330945
        tangentMode: 0
      - time: .200000003
        value: -.671270609
        inSlope: .303158164
        outSlope: .303158164
        tangentMode: 0
      - time: .25
        value: -.687218487
        inSlope: -.226001143
        outSlope: -.226001143
        tangentMode: 0
      - time: .300000012
        value: -.693870723
        inSlope: -.0503927357
        outSlope: -.0503927357
        tangentMode: 0
      - time: .350000024
        value: -.692257762
        inSlope: .0355172083
        outSlope: .0355172083
        tangentMode: 0
      - time: .400000036
        value: -.690319002
        inSlope: .048971165
        outSlope: .048971165
        tangentMode: 0
      - time: .450000048
        value: -.687360644
        inSlope: .127955645
        outSlope: .127955645
        tangentMode: 0
      - time: .50000006
        value: -.677523434
        inSlope: -.0293123648
        outSlope: -.0293123648
        tangentMode: 0
      - time: .550000072
        value: -.690291882
        inSlope: -.163543224
        outSlope: -.163543224
        tangentMode: 0
      - time: .600000024
        value: -.693877757
        inSlope: -.0717175677
        outSlope: -.0717175677
        tangentMode: 0
      m_PreInfinity: 2
      m_PostInfinity: 2
    attribute: m_LocalRotation.y
    path: Katana
    classID: 4
    script: {fileID: 0}
  - curve:
      serializedVersion: 2
      m_Curve:
      - time: 0
        value: .562746227
        inSlope: -4.37288237
        outSlope: -4.37288237
        tangentMode: 0
      - time: .0500000007
        value: .344102114
        inSlope: -3.60369134
        outSlope: -3.60369134
        tangentMode: 0
      - time: .100000001
        value: .202377096
        inSlope: -1.60497129
        outSlope: -1.60497129
        tangentMode: 0
      - time: .150000006
        value: .183604985
        inSlope: -.10221494
        outSlope: -.10221494
        tangentMode: 0
      - time: .200000003
        value: .1921556
        inSlope: -.745625079
        outSlope: -.745625079
        tangentMode: 0
      - time: .25
        value: .109042481
        inSlope: -1.7032578
        outSlope: -1.7032578
        tangentMode: 0
      - time: .300000012
        value: .0218298063
        inSlope: -1.52419543
        outSlope: -1.52419543
        tangentMode: 0
      - time: .350000024
        value: -.0433771051
        inSlope: -.857437015
        outSlope: -.857437015
        tangentMode: 0
      - time: .400000036
        value: -.0639139116
        inSlope: -.451255202
        outSlope: -.451255202
        tangentMode: 0
      - time: .450000048
        value: -.088502638
        inSlope: -.822538555
        outSlope: -.822538555
        tangentMode: 0
      - time: .50000006
        value: -.146167785
        inSlope: .20459789
        outSlope: .20459789
        tangentMode: 0
      - time: .550000072
        value: -.0680428445
        inSlope: 1.63733363
        outSlope: 1.63733363
        tangentMode: 0
      - time: .600000024
        value: .0175655168
        inSlope: 1.71216893
        outSlope: 1.71216893
        tangentMode: 0
      m_PreInfinity: 2
      m_PostInfinity: 2
    attribute: m_LocalRotation.z
    path: Katana
    classID: 4
    script: {fileID: 0}
  - curve:
      serializedVersion: 2
      m_Curve:
      - time: 0
        value: .448085099
        inSlope: 3.68747044
        outSlope: 3.68747044
        tangentMode: 0
      - time: .0500000007
        value: .632458627
        inSlope: .658893228
        outSlope: .658893228
        tangentMode: 0
      - time: .100000001
        value: .513974428
        inSlope: -.322622716
        outSlope: -.322622716
        tangentMode: 0
      - time: .150000006
        value: .600196362
        inSlope: 1.79917693
        outSlope: 1.79917693
        tangentMode: 0
      - time: .200000003
        value: .693892121
        inSlope: 1.11617458
        outSlope: 1.11617458
        tangentMode: 0
      - time: .25
        value: .711813807
        inSlope: .257840753
        outSlope: .257840753
        tangentMode: 0
      - time: .300000012
        value: .719676197
        inSlope: .067131497
        outSlope: .067131497
        tangentMode: 0
      - time: .350000024
        value: .718526959
        inSlope: -.025120968
        outSlope: -.025120968
        tangentMode: 0
      - time: .400000036
        value: .717164099
        inSlope: -.0397968218
        outSlope: -.0397968218
        tangentMode: 0
      - time: .450000048
        value: .714547276
        inSlope: -.121504635
        outSlope: -.121504635
        tangentMode: 0
      - time: .50000006
        value: .705013633
        inSlope: .0223672315
        outSlope: .0223672315
        tangentMode: 0
      - time: .550000072
        value: .716784
        inSlope: .147785544
        outSlope: .147785544
        tangentMode: 0
      - time: .600000024
        value: .719792187
        inSlope: .0601637922
        outSlope: .0601637922
        tangentMode: 0
      m_PreInfinity: 2
      m_PostInfinity: 2
    attribute: m_LocalRotation.w
    path: Katana
    classID: 4
    script: {fileID: 0}
  - curve:
      serializedVersion: 2
      m_Curve:
      - time: 0
        value: 0
        inSlope: 1.26666665
        outSlope: 1.26666665
        tangentMode: 10
      - time: .150000006
        value: .189999998
        inSlope: 5.53333378
        outSlope: 5.53333378
        tangentMode: 10
      - time: .200000003
        value: .680000007
        inSlope: 14.000001
        outSlope: 14.000001
        tangentMode: 10
      - time: .25
        value: 1.59000003
        inSlope: 18.3999977
        outSlope: 18.3999977
        tangentMode: 10
      - time: .300000012
        value: 2.51999998
        inSlope: 22.1000023
        outSlope: 22.1000023
        tangentMode: 10
      - time: .349999994
        value: 3.79999995
        inSlope: 24.9000034
        outSlope: 24.9000034
        tangentMode: 10
      - time: .400000006
        value: 5.01000023
        inSlope: 18.8999996
        outSlope: 18.8999996
        tangentMode: 10
      - time: .449999988
        value: 5.69000006
        inSlope: 13.6000013
        outSlope: 13.6000013
        tangentMode: 10
      m_PreInfinity: 2
      m_PostInfinity: 2
    attribute: m_LocalPosition.x
    path: 
    classID: 4
    script: {fileID: 0}
  - curve:
      serializedVersion: 2
      m_Curve:
      - time: 0
        value: 0
        inSlope: 0
        outSlope: 0
        tangentMode: 10
      - time: .150000006
        value: 0
        inSlope: 1.20000005
        outSlope: 1.20000005
        tangentMode: 10
      - time: .200000003
        value: .119999997
        inSlope: 2.10000014
        outSlope: 2.10000014
        tangentMode: 10
      - time: .25
        value: .209999993
        inSlope: .900000036
        outSlope: .900000036
        tangentMode: 10
      - time: .300000012
        value: .209999993
        inSlope: -3.90000129
        outSlope: -3.90000129
        tangentMode: 10
      - time: .349999994
        value: -.180000007
        inSlope: -7.70000029
        outSlope: -7.70000029
        tangentMode: 10
      - time: .400000006
        value: -.560000002
        inSlope: -8.00000095
        outSlope: -8.00000095
        tangentMode: 10
      - time: .449999988
        value: -.980000019
        inSlope: -8.40000343
        outSlope: -8.40000343
        tangentMode: 10
      m_PreInfinity: 2
      m_PostInfinity: 2
    attribute: m_LocalPosition.y
    path: 
    classID: 4
    script: {fileID: 0}
  - curve:
      serializedVersion: 2
      m_Curve:
      - time: 0
        value: 0
        inSlope: 0
        outSlope: 0
        tangentMode: 10
      - time: .150000006
        value: 0
        inSlope: 0
        outSlope: 0
        tangentMode: 10
      - time: .200000003
        value: 0
        inSlope: 0
        outSlope: 0
        tangentMode: 10
      - time: .25
        value: 0
        inSlope: 0
        outSlope: 0
        tangentMode: 10
      - time: .300000012
        value: 0
        inSlope: 0
        outSlope: 0
        tangentMode: 10
      - time: .349999994
        value: 0
        inSlope: 0
        outSlope: 0
        tangentMode: 10
      - time: .400000006
        value: 0
        inSlope: 0
        outSlope: 0
        tangentMode: 10
      - time: .449999988
        value: 0
        inSlope: 0
        outSlope: 0
        tangentMode: 10
      m_PreInfinity: 2
      m_PostInfinity: 2
    attribute: m_LocalPosition.z
    path: 
    classID: 4
    script: {fileID: 0}
  - curve:
      serializedVersion: 2
      m_Curve:
      - time: 0
        value: 1
        inSlope: Infinity
        outSlope: Infinity
        tangentMode: 31
      - time: .0500000007
        value: 1
        inSlope: Infinity
        outSlope: Infinity
        tangentMode: 31
      m_PreInfinity: 2
      m_PostInfinity: 2
    attribute: m_IsActive
    path: Musicspray
    classID: 1
    script: {fileID: 0}
  m_EulerEditorCurves:
  - curve:
      serializedVersion: 2
      m_Curve:
      - time: 0
        value: 75.8863678
        inSlope: -392.616577
        outSlope: -392.616577
        tangentMode: 10
      - time: .0500000007
        value: 56.2555389
        inSlope: -283.326813
        outSlope: -283.326813
        tangentMode: 10
      - time: .200000003
        value: 30.1499786
        inSlope: -224.327637
        outSlope: -224.327637
        tangentMode: 10
      - time: .300000012
        value: 2.68815613
        inSlope: -240.946838
        outSlope: -240.946838
        tangentMode: 10
      - time: .349999994
        value: -7.6756134
        inSlope: -136.51004
        outSlope: -136.51004
        tangentMode: 10
      - time: .400000006
        value: -10.9628448
        inSlope: -72.8642349
        outSlope: -72.8642349
        tangentMode: 10
      - time: .449999988
        value: -14.9620361
        inSlope: -132.304688
        outSlope: -132.304688
        tangentMode: 10
      - time: .5
        value: -24.1933136
        inSlope: 36.4744492
        outSlope: 36.4744492
        tangentMode: 10
      - time: .550000012
        value: -11.3145905
        inSlope: 265.107056
        outSlope: 265.107056
        tangentMode: 10
      - time: .600000024
        value: 2.31739807
        inSlope: 272.639709
        outSlope: 272.639709
        tangentMode: 10
      m_PreInfinity: 2
      m_PostInfinity: 2
    attribute: localEulerAnglesBaked.x
    path: Katana
    classID: 4
    script: {fileID: 0}
  - curve:
      serializedVersion: 2
      m_Curve:
      - time: 0
        value: 81.7648926
        inSlope: -3359.28589
        outSlope: -3359.28589
        tangentMode: 10
      - time: .0500000007
        value: -86.1994019
        inSlope: -1684.17688
        outSlope: -1684.17688
        tangentMode: 10
      - time: .200000003
        value: -87.5595703
        inSlope: -6.17360401
        outSlope: -6.17360401
        tangentMode: 10
      - time: .300000012
        value: -87.8875122
        inSlope: -1.75872791
        outSlope: -1.75872791
        tangentMode: 10
      - time: .349999994
        value: -87.8994141
        inSlope: .368041813
        outSlope: .368041813
        tangentMode: 10
      - time: .400000006
        value: -87.850708
        inSlope: .836791992
        outSlope: .836791992
        tangentMode: 10
      - time: .449999988
        value: -87.8157349
        inSlope: 1.64001441
        outSlope: 1.64001441
        tangentMode: 10
      - time: .5
        value: -87.6867065
        inSlope: -.32409668
        outSlope: -.32409668
        tangentMode: 10
      - time: .550000012
        value: -87.8481445
        inSlope: -2.01538038
        outSlope: -2.01538038
        tangentMode: 10
      - time: .600000024
        value: -87.8882446
        inSlope: -.802001774
        outSlope: -.802001774
        tangentMode: 10
      m_PreInfinity: 2
      m_PostInfinity: 2
    attribute: localEulerAnglesBaked.y
    path: Katana
    classID: 4
    script: {fileID: 0}
  - curve:
      serializedVersion: 2
      m_Curve:
      - time: 0
        value: 170.979462
        inSlope: -3340.6582
        outSlope: -3340.6582
        tangentMode: 10
      - time: .0500000007
        value: 3.94654846
        inSlope: -1676.78052
        outSlope: -1676.78052
        tangentMode: 10
      - time: .200000003
        value: 2.01113892
        inSlope: -12.0872746
        outSlope: -12.0872746
        tangentMode: 10
      - time: .300000012
        value: .883956909
        inSlope: -9.56962681
        outSlope: -9.56962681
        tangentMode: 10
      - time: .349999994
        value: .490585327
        inSlope: -5.08026218
        outSlope: -5.08026218
        tangentMode: 10
      - time: .400000006
        value: .375930786
        inSlope: -2.03536987
        outSlope: -2.03536987
        tangentMode: 10
      - time: .449999988
        value: .28704834
        inSlope: -5.39550734
        outSlope: -5.39550734
        tangentMode: 10
      - time: .5
        value: -.163619995
        inSlope: -2.3251338
        outSlope: -2.3251338
        tangentMode: 10
      - time: .550000012
        value: .0545349121
        inSlope: 7.25967216
        outSlope: 7.25967216
        tangentMode: 10
      - time: .600000024
        value: .562347412
        inSlope: 10.1562471
        outSlope: 10.1562471
        tangentMode: 10
      m_PreInfinity: 2
      m_PostInfinity: 2
    attribute: localEulerAnglesBaked.z
    path: Katana
    classID: 4
    script: {fileID: 0}
  m_HasGenericRootTransform: 1
  m_HasMotionFloatCurves: 0
  m_GenerateMotionCurves: 0
  m_Events: []
