%YAML 1.1
%TAG !u! tag:unity3d.com,2011:
--- !u!74 &7400000
AnimationClip:
  m_ObjectHideFlags: 0
  m_PrefabParentObject: {fileID: 0}
  m_PrefabInternal: {fileID: 0}
  m_Name: Sliding-stand
  serializedVersion: 6
  m_Legacy: 0
  m_Compressed: 0
  m_UseHighQualityCurve: 1
  m_RotationCurves:
  - curve:
      serializedVersion: 2
      m_Curve:
      - time: .0399999991
        value: {x: -.698427439, y: -.110450044, z: -.6984272, w: .110450961}
        inSlope: {x: .682739913, y: -2.80656338, z: .682742894, w: 2.8065629}
        outSlope: {x: .682739913, y: -2.80656338, z: .682742894, w: 2.8065629}
        tangentMode: 0
      - time: .0799999982
        value: {x: -.671117842, y: -.222712576, z: -.671117485, w: .22271347}
        inSlope: {x: -.0953167677, y: .898201942, z: -.0953182578, w: -.898201942}
        outSlope: {x: -.0953167677, y: .898201942, z: -.0953182578, w: -.898201942}
        tangentMode: 0
      - time: .119999997
        value: {x: -.70605278, y: -.0385938883, z: -.706052661, w: .0385947973}
        inSlope: {x: -.446403772, y: 2.53667665, z: -.446406752, w: -2.53667641}
        outSlope: {x: -.446403772, y: 2.53667665, z: -.446406752, w: -2.53667641}
        tangentMode: 0
      - time: .159999996
        value: {x: -.706830144, y: -.0197784416, z: -.706830025, w: .0197793506}
        inSlope: {x: -.0194340944, y: .470386177, z: -.0194340944, w: -.470386177}
        outSlope: {x: -.0194340944, y: .470386177, z: -.0194340944, w: -.470386177}
        tangentMode: 0
      m_PreInfinity: 2
      m_PostInfinity: 2
    path: Katana
  m_CompressedRotationCurves: []
  m_PositionCurves:
  - curve:
      serializedVersion: 2
      m_Curve:
      - time: 0
        value: {x: .209000006, y: -.967999995, z: 0}
        inSlope: {x: -7.71029902, y: -1.36180377, z: -1.66332586e-06}
        outSlope: {x: -7.71029902, y: -1.36180377, z: -1.66332586e-06}
        tangentMode: 0
      - time: .0399999991
        value: {x: -.0994119644, y: -1.02247214, z: -6.65330333e-08}
        inSlope: {x: -5.14999962, y: 6.82500029, z: 0}
        outSlope: {x: -5.14999962, y: 6.82500029, z: 0}
        tangentMode: 0
      - time: .0799999982
        value: {x: -.202999994, y: -.421999991, z: 0}
        inSlope: {x: -2.06985021, y: 8.03090191, z: 8.31662931e-07}
        outSlope: {x: -2.06985021, y: 8.03090191, z: 8.31662931e-07}
        tangentMode: 0
      - time: .119999997
        value: {x: -.264999986, y: -.379999995, z: 0}
        inSlope: {x: -2.52032375, y: 1.78908491, z: -1.48674502e-07}
        outSlope: {x: -2.52032375, y: 1.78908491, z: -1.48674502e-07}
        tangentMode: 0
      - time: .159999996
        value: {x: -.404625893, y: -.278873205, z: -1.18939596e-08}
        inSlope: {x: -3.49064779, y: 2.52816987, z: -2.97349004e-07}
        outSlope: {x: -3.49064779, y: 2.52816987, z: -2.97349004e-07}
        tangentMode: 0
      m_PreInfinity: 2
      m_PostInfinity: 2
    path: Katana
  m_ScaleCurves: []
  m_FloatCurves:
  - curve:
      serializedVersion: 2
      m_Curve:
      - time: 0
        value: 1
        inSlope: Infinity
        outSlope: Infinity
        tangentMode: 31
      m_PreInfinity: 2
      m_PostInfinity: 2
    attribute: m_Enabled
    path: 
    classID: 61
    script: {fileID: 0}
  - curve:
      serializedVersion: 2
      m_Curve:
      - time: 0
        value: 1.04999995
        inSlope: 7.25000048
        outSlope: 7.25000048
        tangentMode: 10
      - time: .0799999982
        value: 1.63
        inSlope: 6.75
        outSlope: 6.75
        tangentMode: 10
      - time: .119999997
        value: 1.88
        inSlope: 5.37499905
        outSlope: 5.37499905
        tangentMode: 10
      - time: .159999996
        value: 2.05999994
        inSlope: 4.49999857
        outSlope: 4.49999857
        tangentMode: 10
      m_PreInfinity: 2
      m_PostInfinity: 2
    attribute: m_Size.y
    path: 
    classID: 61
    script: {fileID: 0}
  - curve:
      serializedVersion: 2
      m_Curve:
      - time: 0
        value: -.310000002
        inSlope: 5.625
        outSlope: 5.625
        tangentMode: 10
      - time: .0799999982
        value: .140000001
        inSlope: 2.8125
        outSlope: 2.8125
        tangentMode: 10
      - time: .119999997
        value: .140000001
        inSlope: .625
        outSlope: .625
        tangentMode: 10
      - time: .159999996
        value: .189999998
        inSlope: 1.25
        outSlope: 1.25
        tangentMode: 10
      m_PreInfinity: 2
      m_PostInfinity: 2
    attribute: m_Offset.y
    path: 
    classID: 61
    script: {fileID: 0}
  m_PPtrCurves:
  - curve:
    - time: 0
      value: {fileID: 21300026, guid: 49a86b8bd1dc4944ea8251ca8b6974ff, type: 3}
    - time: .0399999991
      value: {fileID: 21300028, guid: 49a86b8bd1dc4944ea8251ca8b6974ff, type: 3}
    - time: .0799999982
      value: {fileID: 21300030, guid: 49a86b8bd1dc4944ea8251ca8b6974ff, type: 3}
    - time: .119999997
      value: {fileID: 21300032, guid: 49a86b8bd1dc4944ea8251ca8b6974ff, type: 3}
    - time: .159999996
      value: {fileID: 21300034, guid: 49a86b8bd1dc4944ea8251ca8b6974ff, type: 3}
    attribute: m_Sprite
    path: 
    classID: 212
    script: {fileID: 0}
  m_SampleRate: 25
  m_WrapMode: 0
  m_Bounds:
    m_Center: {x: 0, y: 0, z: 0}
    m_Extent: {x: 0, y: 0, z: 0}
  m_ClipBindingConstant:
    genericBindings:
    - path: 478971082
      attribute: 1
      script: {fileID: 0}
      classID: 4
      customType: 0
      isPPtrCurve: 0
    - path: 478971082
      attribute: 2
      script: {fileID: 0}
      classID: 4
      customType: 0
      isPPtrCurve: 0
    - path: 0
      attribute: 3305885265
      script: {fileID: 0}
      classID: 61
      customType: 0
      isPPtrCurve: 0
    - path: 0
      attribute: 2368279999
      script: {fileID: 0}
      classID: 61
      customType: 0
      isPPtrCurve: 0
    - path: 0
      attribute: 1872933342
      script: {fileID: 0}
      classID: 61
      customType: 0
      isPPtrCurve: 0
    - path: 0
      attribute: 0
      script: {fileID: 0}
      classID: 212
      customType: 23
      isPPtrCurve: 1
    pptrCurveMapping:
    - {fileID: 21300026, guid: 49a86b8bd1dc4944ea8251ca8b6974ff, type: 3}
    - {fileID: 21300028, guid: 49a86b8bd1dc4944ea8251ca8b6974ff, type: 3}
    - {fileID: 21300030, guid: 49a86b8bd1dc4944ea8251ca8b6974ff, type: 3}
    - {fileID: 21300032, guid: 49a86b8bd1dc4944ea8251ca8b6974ff, type: 3}
    - {fileID: 21300034, guid: 49a86b8bd1dc4944ea8251ca8b6974ff, type: 3}
  m_AnimationClipSettings:
    serializedVersion: 2
    m_StartTime: 0
    m_StopTime: .199999988
    m_OrientationOffsetY: 0
    m_Level: 0
    m_CycleOffset: 0
    m_LoopTime: 0
    m_LoopBlend: 0
    m_LoopBlendOrientation: 0
    m_LoopBlendPositionY: 0
    m_LoopBlendPositionXZ: 0
    m_KeepOriginalOrientation: 0
    m_KeepOriginalPositionY: 1
    m_KeepOriginalPositionXZ: 0
    m_HeightFromFeet: 0
    m_Mirror: 0
  m_EditorCurves:
  - curve:
      serializedVersion: 2
      m_Curve:
      - time: 0
        value: .209000006
        inSlope: -7.71029902
        outSlope: -7.71029902
        tangentMode: 10
      - time: .0399999991
        value: -.0994119644
        inSlope: -5.14999962
        outSlope: -5.14999962
        tangentMode: 10
      - time: .0799999982
        value: -.202999994
        inSlope: -2.06985021
        outSlope: -2.06985021
        tangentMode: 10
      - time: .119999997
        value: -.264999986
        inSlope: -2.52032375
        outSlope: -2.52032375
        tangentMode: 10
      - time: .159999996
        value: -.404625893
        inSlope: -3.49064779
        outSlope: -3.49064779
        tangentMode: 10
      m_PreInfinity: 2
      m_PostInfinity: 2
    attribute: m_LocalPosition.x
    path: Katana
    classID: 4
    script: {fileID: 0}
  - curve:
      serializedVersion: 2
      m_Curve:
      - time: 0
        value: -.967999995
        inSlope: -1.36180377
        outSlope: -1.36180377
        tangentMode: 10
      - time: .0399999991
        value: -1.02247214
        inSlope: 6.82500029
        outSlope: 6.82500029
        tangentMode: 10
      - time: .0799999982
        value: -.421999991
        inSlope: 8.03090191
        outSlope: 8.03090191
        tangentMode: 10
      - time: .119999997
        value: -.379999995
        inSlope: 1.78908491
        outSlope: 1.78908491
        tangentMode: 10
      - time: .159999996
        value: -.278873205
        inSlope: 2.52816987
        outSlope: 2.52816987
        tangentMode: 10
      m_PreInfinity: 2
      m_PostInfinity: 2
    attribute: m_LocalPosition.y
    path: Katana
    classID: 4
    script: {fileID: 0}
  - curve:
      serializedVersion: 2
      m_Curve:
      - time: 0
        value: 0
        inSlope: -1.66332586e-06
        outSlope: -1.66332586e-06
        tangentMode: 10
      - time: .0399999991
        value: -6.65330333e-08
        inSlope: 0
        outSlope: 0
        tangentMode: 10
      - time: .0799999982
        value: 0
        inSlope: 8.31662931e-07
        outSlope: 8.31662931e-07
        tangentMode: 10
      - time: .119999997
        value: 0
        inSlope: -1.48674502e-07
        outSlope: -1.48674502e-07
        tangentMode: 10
      - time: .159999996
        value: -1.18939596e-08
        inSlope: -2.97349004e-07
        outSlope: -2.97349004e-07
        tangentMode: 10
      m_PreInfinity: 2
      m_PostInfinity: 2
    attribute: m_LocalPosition.z
    path: Katana
    classID: 4
    script: {fileID: 0}
  - curve:
      serializedVersion: 2
      m_Curve:
      - time: 0
        value: 1
        inSlope: Infinity
        outSlope: Infinity
        tangentMode: 31
      m_PreInfinity: 2
      m_PostInfinity: 2
    attribute: m_Enabled
    path: 
    classID: 61
    script: {fileID: 0}
  - curve:
      serializedVersion: 2
      m_Curve:
      - time: .0399999991
        value: -.698427439
        inSlope: .682739913
        outSlope: .682739913
        tangentMode: 0
      - time: .0799999982
        value: -.671117842
        inSlope: -.0953167677
        outSlope: -.0953167677
        tangentMode: 0
      - time: .119999997
        value: -.70605278
        inSlope: -.446403772
        outSlope: -.446403772
        tangentMode: 0
      - time: .159999996
        value: -.706830144
        inSlope: -.0194340944
        outSlope: -.0194340944
        tangentMode: 0
      m_PreInfinity: 2
      m_PostInfinity: 2
    attribute: m_LocalRotation.x
    path: Katana
    classID: 4
    script: {fileID: 0}
  - curve:
      serializedVersion: 2
      m_Curve:
      - time: .0399999991
        value: -.110450044
        inSlope: -2.80656338
        outSlope: -2.80656338
        tangentMode: 0
      - time: .0799999982
        value: -.222712576
        inSlope: .898201942
        outSlope: .898201942
        tangentMode: 0
      - time: .119999997
        value: -.0385938883
        inSlope: 2.53667665
        outSlope: 2.53667665
        tangentMode: 0
      - time: .159999996
        value: -.0197784416
        inSlope: .470386177
        outSlope: .470386177
        tangentMode: 0
      m_PreInfinity: 2
      m_PostInfinity: 2
    attribute: m_LocalRotation.y
    path: Katana
    classID: 4
    script: {fileID: 0}
  - curve:
      serializedVersion: 2
      m_Curve:
      - time: .0399999991
        value: -.6984272
        inSlope: .682742894
        outSlope: .682742894
        tangentMode: 0
      - time: .0799999982
        value: -.671117485
        inSlope: -.0953182578
        outSlope: -.0953182578
        tangentMode: 0
      - time: .119999997
        value: -.706052661
        inSlope: -.446406752
        outSlope: -.446406752
        tangentMode: 0
      - time: .159999996
        value: -.706830025
        inSlope: -.0194340944
        outSlope: -.0194340944
        tangentMode: 0
      m_PreInfinity: 2
      m_PostInfinity: 2
    attribute: m_LocalRotation.z
    path: Katana
    classID: 4
    script: {fileID: 0}
  - curve:
      serializedVersion: 2
      m_Curve:
      - time: .0399999991
        value: .110450961
        inSlope: 2.8065629
        outSlope: 2.8065629
        tangentMode: 0
      - time: .0799999982
        value: .22271347
        inSlope: -.898201942
        outSlope: -.898201942
        tangentMode: 0
      - time: .119999997
        value: .0385947973
        inSlope: -2.53667641
        outSlope: -2.53667641
        tangentMode: 0
      - time: .159999996
        value: .0197793506
        inSlope: -.470386177
        outSlope: -.470386177
        tangentMode: 0
      m_PreInfinity: 2
      m_PostInfinity: 2
    attribute: m_LocalRotation.w
    path: Katana
    classID: 4
    script: {fileID: 0}
  - curve:
      serializedVersion: 2
      m_Curve:
      - time: 0
        value: 1.04999995
        inSlope: 7.25000048
        outSlope: 7.25000048
        tangentMode: 10
      - time: .0799999982
        value: 1.63
        inSlope: 6.75
        outSlope: 6.75
        tangentMode: 10
      - time: .119999997
        value: 1.88
        inSlope: 5.37499905
        outSlope: 5.37499905
        tangentMode: 10
      - time: .159999996
        value: 2.05999994
        inSlope: 4.49999857
        outSlope: 4.49999857
        tangentMode: 10
      m_PreInfinity: 2
      m_PostInfinity: 2
    attribute: m_Size.y
    path: 
    classID: 61
    script: {fileID: 0}
  - curve:
      serializedVersion: 2
      m_Curve:
      - time: 0
        value: -.310000002
        inSlope: 5.625
        outSlope: 5.625
        tangentMode: 10
      - time: .0799999982
        value: .140000001
        inSlope: 2.8125
        outSlope: 2.8125
        tangentMode: 10
      - time: .119999997
        value: .140000001
        inSlope: .625
        outSlope: .625
        tangentMode: 10
      - time: .159999996
        value: .189999998
        inSlope: 1.25
        outSlope: 1.25
        tangentMode: 10
      m_PreInfinity: 2
      m_PostInfinity: 2
    attribute: m_Offset.y
    path: 
    classID: 61
    script: {fileID: 0}
  m_EulerEditorCurves:
  - curve:
      serializedVersion: 2
      m_Curve:
      - time: .0399999991
        value: 342.0271
        inSlope: -468.609619
        outSlope: -468.609619
        tangentMode: 10
      - time: .0799999982
        value: 323.282715
        inSlope: 146.440887
        outSlope: 146.440887
        tangentMode: 10
      - time: .119999997
        value: 353.742371
        inSlope: 418.894196
        outSlope: 418.894196
        tangentMode: 10
      - time: .159999996
        value: 356.79425
        inSlope: 76.2969971
        outSlope: 76.2969971
        tangentMode: 10
      m_PreInfinity: 2
      m_PostInfinity: 2
    attribute: localEulerAnglesBaked.x
    path: Katana
    classID: 4
    script: {fileID: 0}
  - curve:
      serializedVersion: 2
      m_Curve:
      - time: .0399999991
        value: 90
        inSlope: 0
        outSlope: 0
        tangentMode: 10
      - time: .0799999982
        value: 90
        inSlope: 0
        outSlope: 0
        tangentMode: 10
      - time: .119999997
        value: 90
        inSlope: 0
        outSlope: 0
        tangentMode: 10
      - time: .159999996
        value: 90
        inSlope: 0
        outSlope: 0
        tangentMode: 10
      m_PreInfinity: 2
      m_PostInfinity: 2
    attribute: localEulerAnglesBaked.y
    path: Katana
    classID: 4
    script: {fileID: 0}
  - curve:
      serializedVersion: 2
      m_Curve:
      - time: .0399999991
        value: 180.000061
        inSlope: 0
        outSlope: 0
        tangentMode: 10
      - time: .0799999982
        value: 180.000061
        inSlope: 0
        outSlope: 0
        tangentMode: 10
      - time: .119999997
        value: 180.000061
        inSlope: 0
        outSlope: 0
        tangentMode: 10
      - time: .159999996
        value: 180.000061
        inSlope: 0
        outSlope: 0
        tangentMode: 10
      m_PreInfinity: 2
      m_PostInfinity: 2
    attribute: localEulerAnglesBaked.z
    path: Katana
    classID: 4
    script: {fileID: 0}
  m_HasGenericRootTransform: 0
  m_HasMotionFloatCurves: 0
  m_GenerateMotionCurves: 0
  m_Events: []
