%YAML 1.1
%TAG !u! tag:unity3d.com,2011:
--- !u!74 &7400000
AnimationClip:
  m_ObjectHideFlags: 0
  m_PrefabParentObject: {fileID: 0}
  m_PrefabInternal: {fileID: 0}
  m_Name: Startrun
  serializedVersion: 6
  m_Legacy: 0
  m_Compressed: 0
  m_UseHighQualityCurve: 1
  m_RotationCurves:
  - curve:
      serializedVersion: 2
      m_Curve:
      - time: 0
        value: {x: -.697486341, y: -.116241448, z: -.697487354, w: .1162415}
        inSlope: {x: -.0613281727, y: .438147068, z: -.0613281727, w: -.438146353}
        outSlope: {x: -.0613281727, y: .438147068, z: -.0613281727, w: -.438146353}
        tangentMode: 0
      - time: .0833333358
        value: {x: -.702597022, y: -.079729192, z: -.702598035, w: .0797293037}
        inSlope: {x: -.0251998901, y: .314388931, z: -.0598779917, w: -.366052419}
        outSlope: {x: -.0251998901, y: .314388931, z: -.0598779917, w: -.366052419}
        tangentMode: 0
      - time: .166666672
        value: {x: -.701686323, y: -.063843295, z: -.70746702, w: .0552327633}
        inSlope: {x: .0238974113, y: .139908567, z: -.0586616993, w: -.263872385}
        outSlope: {x: .0238974113, y: .139908567, z: -.0586616993, w: -.263872385}
        tangentMode: 0
      - time: .25
        value: {x: -.69861412, y: -.0564110987, z: -.712374985, w: .0357505716}
        inSlope: {x: .0418220758, y: .0525685735, z: -.0564898252, w: -.209038466}
        outSlope: {x: .0418220758, y: .0525685735, z: -.0564898252, w: -.209038466}
        tangentMode: 0
      - time: .333333343
        value: {x: -.694715977, y: -.0550818667, z: -.71688199, w: .0203930195}
        inSlope: {x: .0449928008, y: -.00689428207, z: -.0481592342, w: -.164978087}
        outSlope: {x: .0449928008, y: -.00689428207, z: -.0481592342, w: -.164978087}
        tangentMode: 0
      - time: .416666687
        value: {x: -.69111532, y: -.0575601459, z: -.720401525, w: .00825421885}
        inSlope: {x: .0408804417, y: -.0681683943, z: -.0352334976, w: -.1146615}
        outSlope: {x: .0408804417, y: -.0681683943, z: -.0352334976, w: -.1146615}
        tangentMode: 0
      - time: .5
        value: {x: -.68790257, y: -.0664432645, z: -.72275424, w: .00128277019}
        inSlope: {x: .0408003405, y: -.144423574, z: -.0252016857, w: -.0562539399}
        outSlope: {x: .0408003405, y: -.144423574, z: -.0252016857, w: -.0562539399}
        tangentMode: 0
      - time: .583333313
        value: {x: -.684315264, y: -.0816307366, z: -.724601805, w: -.00112143531}
        inSlope: {x: .045055382, y: -.181943148, z: -.0220023356, w: -.0293436311}
        outSlope: {x: .045055382, y: -.181943148, z: -.0220023356, w: -.0293436311}
        tangentMode: 0
      - time: .666666687
        value: {x: -.680393338, y: -.0967671275, z: -.726421297, w: -.00360783562}
        inSlope: {x: .0470630899, y: -.181636602, z: -.0218338855, w: -.0298367888}
        outSlope: {x: .0470630899, y: -.181636602, z: -.0218338855, w: -.0298367888}
        tangentMode: 0
      m_PreInfinity: 2
      m_PostInfinity: 2
    path: Katana
  m_CompressedRotationCurves: []
  m_PositionCurves:
  - curve:
      serializedVersion: 2
      m_Curve:
      - time: 0
        value: {x: -.0119061312, y: -.133077383, z: 3.11930535e-08}
        inSlope: {x: .598873556, y: .300928563, z: -3.74316642e-07}
        outSlope: {x: .598873556, y: .300928563, z: -3.74316642e-07}
        tangentMode: 0
      - time: .0833333358
        value: {x: .0379999988, y: -.108000003, z: -0}
        inSlope: {x: .191436782, y: .198464289, z: -1.87158321e-07}
        outSlope: {x: .191436782, y: .198464289, z: -1.87158321e-07}
        tangentMode: 0
      - time: .166666672
        value: {x: .0199999996, y: -.100000001, z: 0}
        inSlope: {x: -.148000002, y: -.0119999833, z: 0}
        outSlope: {x: -.148000002, y: -.0119999833, z: 0}
        tangentMode: 0
      - time: .416666657
        value: {x: -0, y: -.129999995, z: -0}
        inSlope: {x: .0799999833, y: -.12000002, z: 0}
        outSlope: {x: .0799999833, y: -.12000002, z: 0}
        tangentMode: 0
      - time: .5
        value: {x: .0199999996, y: -.140000001, z: -0}
        inSlope: {x: .119999982, y: -.0600000247, z: 0}
        outSlope: {x: .119999982, y: -.0600000247, z: 0}
        tangentMode: 0
      - time: .583333313
        value: {x: .0199999996, y: -.140000001, z: -0}
        inSlope: {x: .31799984, y: .137999952, z: .023999989}
        outSlope: {x: .31799984, y: .137999952, z: .023999989}
        tangentMode: 0
      - time: .666666687
        value: {x: .0729999989, y: -.116999999, z: .00400000019}
        inSlope: {x: .63599968, y: .275999904, z: .0479999781}
        outSlope: {x: .63599968, y: .275999904, z: .0479999781}
        tangentMode: 0
      m_PreInfinity: 2
      m_PostInfinity: 2
    path: Katana
  m_ScaleCurves: []
  m_FloatCurves: []
  m_PPtrCurves:
  - curve:
    - time: 0
      value: {fileID: 21300000, guid: 5570c8ca1af57ad4ba868677083fbc64, type: 3}
    - time: .0833333358
      value: {fileID: 21300002, guid: 5570c8ca1af57ad4ba868677083fbc64, type: 3}
    - time: .166666672
      value: {fileID: 21300004, guid: 5570c8ca1af57ad4ba868677083fbc64, type: 3}
    - time: .25
      value: {fileID: 21300006, guid: 5570c8ca1af57ad4ba868677083fbc64, type: 3}
    - time: .333333343
      value: {fileID: 21300008, guid: 5570c8ca1af57ad4ba868677083fbc64, type: 3}
    - time: .416666657
      value: {fileID: 21300010, guid: 5570c8ca1af57ad4ba868677083fbc64, type: 3}
    - time: .5
      value: {fileID: 21300012, guid: 5570c8ca1af57ad4ba868677083fbc64, type: 3}
    - time: .583333313
      value: {fileID: 21300014, guid: 5570c8ca1af57ad4ba868677083fbc64, type: 3}
    - time: .666666687
      value: {fileID: 21300016, guid: 5570c8ca1af57ad4ba868677083fbc64, type: 3}
    attribute: m_Sprite
    path: 
    classID: 212
    script: {fileID: 0}
  m_SampleRate: 12
  m_WrapMode: 0
  m_Bounds:
    m_Center: {x: 0, y: 0, z: 0}
    m_Extent: {x: 0, y: 0, z: 0}
  m_ClipBindingConstant:
    genericBindings:
    - path: 478971082
      attribute: 1
      script: {fileID: 0}
      classID: 4
      customType: 0
      isPPtrCurve: 0
    - path: 478971082
      attribute: 2
      script: {fileID: 0}
      classID: 4
      customType: 0
      isPPtrCurve: 0
    - path: 0
      attribute: 0
      script: {fileID: 0}
      classID: 212
      customType: 23
      isPPtrCurve: 1
    pptrCurveMapping:
    - {fileID: 21300000, guid: 5570c8ca1af57ad4ba868677083fbc64, type: 3}
    - {fileID: 21300002, guid: 5570c8ca1af57ad4ba868677083fbc64, type: 3}
    - {fileID: 21300004, guid: 5570c8ca1af57ad4ba868677083fbc64, type: 3}
    - {fileID: 21300006, guid: 5570c8ca1af57ad4ba868677083fbc64, type: 3}
    - {fileID: 21300008, guid: 5570c8ca1af57ad4ba868677083fbc64, type: 3}
    - {fileID: 21300010, guid: 5570c8ca1af57ad4ba868677083fbc64, type: 3}
    - {fileID: 21300012, guid: 5570c8ca1af57ad4ba868677083fbc64, type: 3}
    - {fileID: 21300014, guid: 5570c8ca1af57ad4ba868677083fbc64, type: 3}
    - {fileID: 21300016, guid: 5570c8ca1af57ad4ba868677083fbc64, type: 3}
  m_AnimationClipSettings:
    serializedVersion: 2
    m_StartTime: 0
    m_StopTime: .75
    m_OrientationOffsetY: 0
    m_Level: 0
    m_CycleOffset: 0
    m_LoopTime: 1
    m_LoopBlend: 0
    m_LoopBlendOrientation: 0
    m_LoopBlendPositionY: 0
    m_LoopBlendPositionXZ: 0
    m_KeepOriginalOrientation: 0
    m_KeepOriginalPositionY: 1
    m_KeepOriginalPositionXZ: 0
    m_HeightFromFeet: 0
    m_Mirror: 0
  m_EditorCurves:
  - curve:
      serializedVersion: 2
      m_Curve:
      - time: 0
        value: -.0119061312
        inSlope: .598873556
        outSlope: .598873556
        tangentMode: 10
      - time: .0833333358
        value: .0379999988
        inSlope: .191436782
        outSlope: .191436782
        tangentMode: 10
      - time: .166666672
        value: .0199999996
        inSlope: -.148000002
        outSlope: -.148000002
        tangentMode: 10
      - time: .416666657
        value: -0
        inSlope: .0799999833
        outSlope: .0799999833
        tangentMode: 10
      - time: .5
        value: .0199999996
        inSlope: .119999982
        outSlope: .119999982
        tangentMode: 10
      - time: .583333313
        value: .0199999996
        inSlope: .31799984
        outSlope: .31799984
        tangentMode: 10
      - time: .666666687
        value: .0729999989
        inSlope: .63599968
        outSlope: .63599968
        tangentMode: 10
      m_PreInfinity: 2
      m_PostInfinity: 2
    attribute: m_LocalPosition.x
    path: Katana
    classID: 4
    script: {fileID: 0}
  - curve:
      serializedVersion: 2
      m_Curve:
      - time: 0
        value: -.133077383
        inSlope: .300928563
        outSlope: .300928563
        tangentMode: 10
      - time: .0833333358
        value: -.108000003
        inSlope: .198464289
        outSlope: .198464289
        tangentMode: 10
      - time: .166666672
        value: -.100000001
        inSlope: -.0119999833
        outSlope: -.0119999833
        tangentMode: 10
      - time: .416666657
        value: -.129999995
        inSlope: -.12000002
        outSlope: -.12000002
        tangentMode: 10
      - time: .5
        value: -.140000001
        inSlope: -.0600000247
        outSlope: -.0600000247
        tangentMode: 10
      - time: .583333313
        value: -.140000001
        inSlope: .137999952
        outSlope: .137999952
        tangentMode: 10
      - time: .666666687
        value: -.116999999
        inSlope: .275999904
        outSlope: .275999904
        tangentMode: 10
      m_PreInfinity: 2
      m_PostInfinity: 2
    attribute: m_LocalPosition.y
    path: Katana
    classID: 4
    script: {fileID: 0}
  - curve:
      serializedVersion: 2
      m_Curve:
      - time: 0
        value: 3.11930535e-08
        inSlope: -3.74316642e-07
        outSlope: -3.74316642e-07
        tangentMode: 10
      - time: .0833333358
        value: -0
        inSlope: -1.87158321e-07
        outSlope: -1.87158321e-07
        tangentMode: 10
      - time: .166666672
        value: 0
        inSlope: 0
        outSlope: 0
        tangentMode: 10
      - time: .416666657
        value: -0
        inSlope: 0
        outSlope: 0
        tangentMode: 10
      - time: .5
        value: -0
        inSlope: 0
        outSlope: 0
        tangentMode: 10
      - time: .583333313
        value: -0
        inSlope: .023999989
        outSlope: .023999989
        tangentMode: 10
      - time: .666666687
        value: .00400000019
        inSlope: .0479999781
        outSlope: .0479999781
        tangentMode: 10
      m_PreInfinity: 2
      m_PostInfinity: 2
    attribute: m_LocalPosition.z
    path: Katana
    classID: 4
    script: {fileID: 0}
  - curve:
      serializedVersion: 2
      m_Curve:
      - time: 0
        value: -.697486341
        inSlope: -.0613281727
        outSlope: -.0613281727
        tangentMode: 0
      - time: .0833333358
        value: -.702597022
        inSlope: -.0251998901
        outSlope: -.0251998901
        tangentMode: 0
      - time: .166666672
        value: -.701686323
        inSlope: .0238974113
        outSlope: .0238974113
        tangentMode: 0
      - time: .25
        value: -.69861412
        inSlope: .0418220758
        outSlope: .0418220758
        tangentMode: 0
      - time: .333333343
        value: -.694715977
        inSlope: .0449928008
        outSlope: .0449928008
        tangentMode: 0
      - time: .416666687
        value: -.69111532
        inSlope: .0408804417
        outSlope: .0408804417
        tangentMode: 0
      - time: .5
        value: -.68790257
        inSlope: .0408003405
        outSlope: .0408003405
        tangentMode: 0
      - time: .583333313
        value: -.684315264
        inSlope: .045055382
        outSlope: .045055382
        tangentMode: 0
      - time: .666666687
        value: -.680393338
        inSlope: .0470630899
        outSlope: .0470630899
        tangentMode: 0
      m_PreInfinity: 2
      m_PostInfinity: 2
    attribute: m_LocalRotation.x
    path: Katana
    classID: 4
    script: {fileID: 0}
  - curve:
      serializedVersion: 2
      m_Curve:
      - time: 0
        value: -.116241448
        inSlope: .438147068
        outSlope: .438147068
        tangentMode: 0
      - time: .0833333358
        value: -.079729192
        inSlope: .314388931
        outSlope: .314388931
        tangentMode: 0
      - time: .166666672
        value: -.063843295
        inSlope: .139908567
        outSlope: .139908567
        tangentMode: 0
      - time: .25
        value: -.0564110987
        inSlope: .0525685735
        outSlope: .0525685735
        tangentMode: 0
      - time: .333333343
        value: -.0550818667
        inSlope: -.00689428207
        outSlope: -.00689428207
        tangentMode: 0
      - time: .416666687
        value: -.0575601459
        inSlope: -.0681683943
        outSlope: -.0681683943
        tangentMode: 0
      - time: .5
        value: -.0664432645
        inSlope: -.144423574
        outSlope: -.144423574
        tangentMode: 0
      - time: .583333313
        value: -.0816307366
        inSlope: -.181943148
        outSlope: -.181943148
        tangentMode: 0
      - time: .666666687
        value: -.0967671275
        inSlope: -.181636602
        outSlope: -.181636602
        tangentMode: 0
      m_PreInfinity: 2
      m_PostInfinity: 2
    attribute: m_LocalRotation.y
    path: Katana
    classID: 4
    script: {fileID: 0}
  - curve:
      serializedVersion: 2
      m_Curve:
      - time: 0
        value: -.697487354
        inSlope: -.0613281727
        outSlope: -.0613281727
        tangentMode: 0
      - time: .0833333358
        value: -.702598035
        inSlope: -.0598779917
        outSlope: -.0598779917
        tangentMode: 0
      - time: .166666672
        value: -.70746702
        inSlope: -.0586616993
        outSlope: -.0586616993
        tangentMode: 0
      - time: .25
        value: -.712374985
        inSlope: -.0564898252
        outSlope: -.0564898252
        tangentMode: 0
      - time: .333333343
        value: -.71688199
        inSlope: -.0481592342
        outSlope: -.0481592342
        tangentMode: 0
      - time: .416666687
        value: -.720401525
        inSlope: -.0352334976
        outSlope: -.0352334976
        tangentMode: 0
      - time: .5
        value: -.72275424
        inSlope: -.0252016857
        outSlope: -.0252016857
        tangentMode: 0
      - time: .583333313
        value: -.724601805
        inSlope: -.0220023356
        outSlope: -.0220023356
        tangentMode: 0
      - time: .666666687
        value: -.726421297
        inSlope: -.0218338855
        outSlope: -.0218338855
        tangentMode: 0
      m_PreInfinity: 2
      m_PostInfinity: 2
    attribute: m_LocalRotation.z
    path: Katana
    classID: 4
    script: {fileID: 0}
  - curve:
      serializedVersion: 2
      m_Curve:
      - time: 0
        value: .1162415
        inSlope: -.438146353
        outSlope: -.438146353
        tangentMode: 0
      - time: .0833333358
        value: .0797293037
        inSlope: -.366052419
        outSlope: -.366052419
        tangentMode: 0
      - time: .166666672
        value: .0552327633
        inSlope: -.263872385
        outSlope: -.263872385
        tangentMode: 0
      - time: .25
        value: .0357505716
        inSlope: -.209038466
        outSlope: -.209038466
        tangentMode: 0
      - time: .333333343
        value: .0203930195
        inSlope: -.164978087
        outSlope: -.164978087
        tangentMode: 0
      - time: .416666687
        value: .00825421885
        inSlope: -.1146615
        outSlope: -.1146615
        tangentMode: 0
      - time: .5
        value: .00128277019
        inSlope: -.0562539399
        outSlope: -.0562539399
        tangentMode: 0
      - time: .583333313
        value: -.00112143531
        inSlope: -.0293436311
        outSlope: -.0293436311
        tangentMode: 0
      - time: .666666687
        value: -.00360783562
        inSlope: -.0298367888
        outSlope: -.0298367888
        tangentMode: 0
      m_PreInfinity: 2
      m_PostInfinity: 2
    attribute: m_LocalRotation.w
    path: Katana
    classID: 4
    script: {fileID: 0}
  m_EulerEditorCurves:
  - curve:
      serializedVersion: 2
      m_Curve:
      - time: 0
        value: -18.9236298
        inSlope: 71.7050171
        outSlope: 71.7050171
        tangentMode: 10
      - time: .0833333358
        value: -12.9482117
        inSlope: 47.1546478
        outSlope: 47.1546478
        tangentMode: 10
      - time: .416666657
        value: -5.41345215
        inSlope: 6.53340292
        outSlope: 6.53340292
        tangentMode: 10
      - time: .666666687
        value: -7.79782104
        inSlope: -9.53747463
        outSlope: -9.53747463
        tangentMode: 10
      m_PreInfinity: 2
      m_PostInfinity: 2
    attribute: localEulerAnglesBaked.x
    path: Katana
    classID: 4
    script: {fileID: 0}
  - curve:
      serializedVersion: 2
      m_Curve:
      - time: 0
        value: -270.000061
        inSlope: 0
        outSlope: 0
        tangentMode: 10
      - time: .0833333358
        value: -270.000061
        inSlope: -3.28916955
        outSlope: -3.28916955
        tangentMode: 10
      - time: .416666657
        value: -272.192841
        inSlope: -5.31462097
        outSlope: -5.31462097
        tangentMode: 10
      - time: .666666687
        value: -273.205566
        inSlope: -4.05090284
        outSlope: -4.05090284
        tangentMode: 10
      m_PreInfinity: 2
      m_PostInfinity: 2
    attribute: localEulerAnglesBaked.y
    path: Katana
    classID: 4
    script: {fileID: 0}
  - curve:
      serializedVersion: 2
      m_Curve:
      - time: 0
        value: 180
        inSlope: 0
        outSlope: 0
        tangentMode: 10
      - time: .0833333358
        value: 180
        inSlope: -5.84628344
        outSlope: -5.84628344
        tangentMode: 10
      - time: .416666657
        value: 176.102478
        inSlope: -13.9385681
        outSlope: -13.9385681
        tangentMode: 10
      - time: .666666687
        value: 172.056335
        inSlope: -16.1845684
        outSlope: -16.1845684
        tangentMode: 10
      m_PreInfinity: 2
      m_PostInfinity: 2
    attribute: localEulerAnglesBaked.z
    path: Katana
    classID: 4
    script: {fileID: 0}
  m_HasGenericRootTransform: 0
  m_HasMotionFloatCurves: 0
  m_GenerateMotionCurves: 0
  m_Events: []
